15-May-2018 11:49:13.907 INFO [main] org.apache.catalina.startup.VersionLoggerListener.log Server version:        Apache Tomcat/8.5.14
15-May-2018 11:49:13.914 INFO [main] org.apache.catalina.startup.VersionLoggerListener.log Server built:          Apr 13 2017 12:55:45 UTC
15-May-2018 11:49:13.922 INFO [main] org.apache.catalina.startup.VersionLoggerListener.log Server number:         8.5.14.0
15-May-2018 11:49:13.923 INFO [main] org.apache.catalina.startup.VersionLoggerListener.log OS Name:               Windows 10
15-May-2018 11:49:13.924 INFO [main] org.apache.catalina.startup.VersionLoggerListener.log OS Version:            10.0
15-May-2018 11:49:13.926 INFO [main] org.apache.catalina.startup.VersionLoggerListener.log Architecture:          amd64
15-May-2018 11:49:13.927 INFO [main] org.apache.catalina.startup.VersionLoggerListener.log Java Home:             D:\work_rks\Java\jre
15-May-2018 11:49:13.928 INFO [main] org.apache.catalina.startup.VersionLoggerListener.log JVM Version:           1.8.0_162-b12
15-May-2018 11:49:13.930 INFO [main] org.apache.catalina.startup.VersionLoggerListener.log JVM Vendor:            Oracle Corporation
15-May-2018 11:49:13.932 INFO [main] org.apache.catalina.startup.VersionLoggerListener.log CATALINA_BASE:         D:\work_rks\Projects\ExampleFilter\deploy\tomcat
15-May-2018 11:49:13.933 INFO [main] org.apache.catalina.startup.VersionLoggerListener.log CATALINA_HOME:         D:\work_rks\Projects\ExampleFilter\deploy\tomcat
15-May-2018 11:49:13.934 INFO [main] org.apache.catalina.startup.VersionLoggerListener.log Command line argument: -Djava.util.logging.config.file=D:\work_rks\Projects\ExampleFilter\deploy\tomcat\conf\logging.properties
15-May-2018 11:49:13.935 INFO [main] org.apache.catalina.startup.VersionLoggerListener.log Command line argument: -Djava.util.logging.manager=org.apache.juli.ClassLoaderLogManager
15-May-2018 11:49:13.935 INFO [main] org.apache.catalina.startup.VersionLoggerListener.log Command line argument: -Djdk.tls.ephemeralDHKeySize=2048
15-May-2018 11:49:13.936 INFO [main] org.apache.catalina.startup.VersionLoggerListener.log Command line argument: -Djava.protocol.handler.pkgs=org.apache.catalina.webresources
15-May-2018 11:49:13.937 INFO [main] org.apache.catalina.startup.VersionLoggerListener.log Command line argument: -Xrunjdwp:transport=dt_socket,address=8787,server=y,suspend=n
15-May-2018 11:49:13.938 INFO [main] org.apache.catalina.startup.VersionLoggerListener.log Command line argument: -Xmx512m
15-May-2018 11:49:13.939 INFO [main] org.apache.catalina.startup.VersionLoggerListener.log Command line argument: -Dfile.encoding=UTF-8
15-May-2018 11:49:13.941 INFO [main] org.apache.catalina.startup.VersionLoggerListener.log Command line argument: -Dlogback.configurationFile=../conf/logback.xml
15-May-2018 11:49:13.945 INFO [main] org.apache.catalina.startup.VersionLoggerListener.log Command line argument: -Dcom.sun.management.jmxremote
15-May-2018 11:49:13.947 INFO [main] org.apache.catalina.startup.VersionLoggerListener.log Command line argument: -Dcatalina.base=D:\work_rks\Projects\ExampleFilter\deploy\tomcat
15-May-2018 11:49:13.948 INFO [main] org.apache.catalina.startup.VersionLoggerListener.log Command line argument: -Dcatalina.home=D:\work_rks\Projects\ExampleFilter\deploy\tomcat
15-May-2018 11:49:13.949 INFO [main] org.apache.catalina.startup.VersionLoggerListener.log Command line argument: -Djava.io.tmpdir=D:\work_rks\Projects\ExampleFilter\deploy\tomcat\temp
15-May-2018 11:49:13.950 INFO [main] org.apache.catalina.core.AprLifecycleListener.lifecycleEvent The APR based Apache Tomcat Native library which allows optimal performance in production environments was not found on the java.library.path: D:\work_rks\Java\bin;C:\WINDOWS\Sun\Java\bin;C:\WINDOWS\system32;C:\WINDOWS;C:\Program Files (x86)\Common Files\Oracle\Java\javapath;C:\ProgramData\Oracle\Java\javapath;C:\Program Files (x86)\Intel\iCLS Client\;C:\Program Files\Intel\iCLS Client\;C:\Windows\system32;C:\Windows;C:\Windows\System32\Wbem;C:\Windows\System32\WindowsPowerShell\v1.0\;C:\Program Files (x86)\Intel\Intel(R) Management Engine Components\DAL;C:\Program Files\Intel\Intel(R) Management Engine Components\DAL;C:\Program Files (x86)\Intel\Intel(R) Management Engine Components\IPT;C:\Program Files\Intel\Intel(R) Management Engine Components\IPT;C:\Program Files (x86)\NVIDIA Corporation\PhysX\Common;C:\Program Files\Git\cmd;C:\WINDOWS\system32;C:\WINDOWS;C:\WINDOWS\System32\Wbem;C:\WINDOWS\System32\WindowsPowerShell\v1.0\;C:\WINDOWS\System32\OpenSSH\;C:\Users\Finnn\AppData\Local\Microsoft\WindowsApps;;.
15-May-2018 11:49:18.496 INFO [main] org.apache.coyote.AbstractProtocol.init Initializing ProtocolHandler ["http-nio-8080"]
15-May-2018 11:49:18.567 INFO [main] org.apache.tomcat.util.net.NioSelectorPool.getSharedSelector Using a shared selector for servlet write/read
15-May-2018 11:49:18.708 INFO [main] org.apache.coyote.AbstractProtocol.init Initializing ProtocolHandler ["ajp-nio-8009"]
15-May-2018 11:49:18.711 INFO [main] org.apache.tomcat.util.net.NioSelectorPool.getSharedSelector Using a shared selector for servlet write/read
15-May-2018 11:49:18.712 INFO [main] org.apache.catalina.startup.Catalina.load Initialization processed in 5655 ms
15-May-2018 11:49:18.811 INFO [main] org.apache.catalina.core.StandardService.startInternal Starting service Catalina
15-May-2018 11:49:18.814 INFO [main] org.apache.catalina.core.StandardEngine.startInternal Starting Servlet Engine: Apache Tomcat/8.5.14
15-May-2018 11:49:18.826 INFO [localhost-startStop-1] org.apache.catalina.startup.HostConfig.deployDirectory Deploying web application directory D:\work_rks\Projects\ExampleFilter\deploy\tomcat\webapps\app
15-May-2018 11:49:36.726 INFO [localhost-startStop-1] org.apache.catalina.startup.HostConfig.deployDirectory Deployment of web application directory D:\work_rks\Projects\ExampleFilter\deploy\tomcat\webapps\app has finished in 17,898 ms
15-May-2018 11:49:36.727 INFO [localhost-startStop-1] org.apache.catalina.startup.HostConfig.deployDirectory Deploying web application directory D:\work_rks\Projects\ExampleFilter\deploy\tomcat\webapps\app-core
15-May-2018 11:49:52.161 INFO [localhost-startStop-1] org.apache.catalina.startup.HostConfig.deployDirectory Deployment of web application directory D:\work_rks\Projects\ExampleFilter\deploy\tomcat\webapps\app-core has finished in 15,433 ms
15-May-2018 11:49:52.213 INFO [main] org.apache.coyote.AbstractProtocol.start Starting ProtocolHandler ["http-nio-8080"]
15-May-2018 11:49:52.232 INFO [main] org.apache.coyote.AbstractProtocol.start Starting ProtocolHandler ["ajp-nio-8009"]
15-May-2018 11:49:52.240 INFO [main] org.apache.catalina.startup.Catalina.start Server startup in 33527 ms
15-May-2018 11:49:52.489 WARNING [http-nio-8080-exec-29] com.vaadin.server.DefaultDeploymentConfiguration.checkProductionMode 
=================================================================
Vaadin is running in DEBUG MODE.
Add productionMode=true to web.xml to disable debug features.
To show debug window, add ?debug to your application URL.
=================================================================
15-May-2018 11:51:43.101 INFO [main] org.apache.catalina.core.StandardServer.await A valid shutdown command was received via the shutdown port. Stopping the Server instance.
15-May-2018 11:51:43.104 INFO [main] org.apache.coyote.AbstractProtocol.pause Pausing ProtocolHandler ["http-nio-8080"]
15-May-2018 11:51:43.282 INFO [main] org.apache.coyote.AbstractProtocol.pause Pausing ProtocolHandler ["ajp-nio-8009"]
15-May-2018 11:51:43.449 INFO [main] org.apache.catalina.core.StandardService.stopInternal Stopping service Catalina
15-May-2018 11:51:43.654 INFO [main] org.apache.coyote.AbstractProtocol.stop Stopping ProtocolHandler ["http-nio-8080"]
15-May-2018 11:51:43.662 INFO [main] org.apache.coyote.AbstractProtocol.stop Stopping ProtocolHandler ["ajp-nio-8009"]
15-May-2018 11:51:43.664 INFO [main] org.apache.coyote.AbstractProtocol.destroy Destroying ProtocolHandler ["http-nio-8080"]
15-May-2018 11:51:43.667 INFO [main] org.apache.coyote.AbstractProtocol.destroy Destroying ProtocolHandler ["ajp-nio-8009"]
